<?xml version="1.0" encoding="UTF-8"?>
<svg xmlns="http://www.w3.org/2000/svg" xmlns:xlink="http://www.w3.org/1999/xlink" width="810pt" height="225pt" viewBox="0 0 810 225" version="1.2">
<defs>
<g>
<symbol overflow="visible" id="glyph0-0">
<path style="stroke:none;" d="M 103.367188 -88.851562 C 103.367188 -111.761719 89.199219 -125.054688 64.890625 -125.054688 L 15.214844 -125.054688 C 12.941406 -125.054688 11.71875 -123.832031 11.71875 -121.558594 L 11.71875 -3.5 C 11.71875 -1.222656 12.941406 0 15.214844 0 L 65.761719 0 C 93.222656 0 108.613281 -14.867188 108.613281 -39.878906 C 108.613281 -53.34375 102.316406 -62.613281 91.125 -66.988281 C 98.820312 -71.710938 103.367188 -79.054688 103.367188 -88.851562 Z M 68.5625 -86.925781 C 68.5625 -80.457031 65.238281 -77.65625 58.59375 -77.65625 L 45.824219 -77.65625 L 45.824219 -96.019531 L 58.59375 -96.019531 C 65.589844 -96.019531 68.5625 -92.523438 68.5625 -86.925781 Z M 62.613281 -29.910156 L 45.824219 -29.910156 L 45.824219 -51.597656 L 61.390625 -51.597656 C 70.3125 -51.597656 73.632812 -47.398438 73.632812 -41.101562 C 73.632812 -33.757812 69.261719 -29.910156 62.613281 -29.910156 Z M 62.613281 -29.910156 "/>
</symbol>
<symbol overflow="visible" id="glyph0-1">
<path style="stroke:none;" d="M 45.824219 -3.5 L 45.824219 -121.558594 C 45.824219 -123.832031 44.601562 -125.054688 42.328125 -125.054688 L 15.214844 -125.054688 C 12.941406 -125.054688 11.71875 -123.832031 11.71875 -121.558594 L 11.71875 -3.5 C 11.71875 -1.222656 12.941406 0 15.214844 0 L 42.328125 0 C 44.601562 0 45.824219 -1.222656 45.824219 -3.5 Z M 45.824219 -3.5 "/>
</symbol>
<symbol overflow="visible" id="glyph0-2">
<path style="stroke:none;" d="M 15.214844 0 L 90.25 0 C 92.523438 0 93.746094 -1.222656 93.746094 -3.5 L 93.746094 -28.335938 C 93.746094 -30.609375 92.523438 -31.832031 90.25 -31.832031 L 45.824219 -31.832031 L 45.824219 -121.558594 C 45.824219 -123.832031 44.601562 -125.054688 42.328125 -125.054688 L 15.214844 -125.054688 C 12.941406 -125.054688 11.71875 -123.832031 11.71875 -121.558594 L 11.71875 -3.5 C 11.71875 -1.222656 12.941406 0 15.214844 0 Z M 15.214844 0 "/>
</symbol>
<symbol overflow="visible" id="glyph0-3">
<path style="stroke:none;" d="M 45.824219 -30.609375 L 45.824219 -48.273438 L 84.304688 -48.273438 C 86.578125 -48.273438 87.800781 -49.496094 87.800781 -51.769531 L 87.800781 -74.683594 C 87.800781 -76.957031 86.578125 -78.179688 84.304688 -78.179688 L 45.824219 -78.179688 L 45.824219 -94.449219 L 91.125 -94.449219 C 93.398438 -94.449219 94.621094 -95.671875 94.621094 -97.945312 L 94.621094 -121.558594 C 94.621094 -123.832031 93.398438 -125.054688 91.125 -125.054688 L 15.214844 -125.054688 C 12.941406 -125.054688 11.71875 -123.832031 11.71875 -121.558594 L 11.71875 -3.5 C 11.71875 -1.222656 12.941406 0 15.214844 0 L 94.097656 0 C 96.371094 0 97.59375 -1.222656 97.59375 -3.5 L 97.59375 -27.109375 C 97.59375 -29.382812 96.371094 -30.609375 94.097656 -30.609375 Z M 45.824219 -30.609375 "/>
</symbol>
<symbol overflow="visible" id="glyph1-0">
<path style="stroke:none;" d="M 3.324219 0 L 32.183594 0 C 34.105469 0 35.679688 -0.875 36.203125 -2.972656 L 41.101562 -20.113281 L 79.054688 -20.113281 L 83.777344 -2.972656 C 84.304688 -0.875 85.878906 0 87.800781 0 L 116.660156 0 C 119.109375 0 120.332031 -1.574219 119.457031 -4.023438 L 79.929688 -122.257812 C 79.230469 -124.179688 78.007812 -125.054688 76.082031 -125.054688 L 43.902344 -125.054688 C 41.976562 -125.054688 40.753906 -124.179688 40.050781 -122.257812 L 0.523438 -4.023438 C -0.351562 -1.574219 0.875 0 3.324219 0 Z M 49.324219 -48.972656 L 59.640625 -87.976562 L 60.339844 -87.976562 L 70.835938 -48.972656 Z M 49.324219 -48.972656 "/>
</symbol>
<symbol overflow="visible" id="glyph1-1">
<path style="stroke:none;" d="M 61.914062 -78.53125 C 50.195312 -81.503906 43.902344 -83.601562 43.902344 -87.800781 C 43.902344 -92.699219 48.097656 -95.148438 55.269531 -95.148438 C 65.414062 -95.148438 75.90625 -92.523438 84.828125 -87.277344 C 86.75 -86.226562 88.5 -86.578125 89.726562 -88.324219 L 103.542969 -109.3125 C 104.765625 -111.238281 104.417969 -112.988281 102.492188 -114.210938 C 90.25 -121.730469 79.582031 -125.578125 67.6875 -126.980469 L 67.6875 -139.046875 C 67.6875 -141.320312 66.464844 -142.546875 64.1875 -142.546875 L 44.949219 -142.546875 C 42.675781 -142.546875 41.453125 -141.320312 41.453125 -139.046875 L 41.453125 -126.105469 C 20.988281 -122.433594 7.519531 -110.714844 7.519531 -89.023438 C 7.519531 -59.46875 34.457031 -51.769531 53.695312 -46.875 C 65.414062 -44.074219 71.710938 -42.152344 71.710938 -37.953125 C 71.710938 -33.582031 66.113281 -30.433594 58.59375 -30.433594 C 47.046875 -30.433594 35.15625 -35.15625 25.011719 -41.800781 C 23.261719 -43.027344 21.511719 -42.851562 20.289062 -40.925781 L 5.597656 -20.113281 C 4.371094 -18.363281 4.546875 -16.617188 6.296875 -15.214844 C 18.191406 -6.121094 29.207031 -0.875 41.453125 1.222656 L 41.453125 15.042969 C 41.453125 17.316406 42.675781 18.539062 44.949219 18.539062 L 64.1875 18.539062 C 66.464844 18.539062 67.6875 17.316406 67.6875 15.042969 L 67.6875 1.574219 C 87.976562 -1.398438 108.441406 -12.242188 108.441406 -39.003906 C 108.441406 -66.8125 86.050781 -72.585938 61.914062 -78.53125 Z M 61.914062 -78.53125 "/>
</symbol>
</g>
</defs>
<g id="surface1">
<g style="fill:rgb(0%,50.19989%,21.569824%);fill-opacity:1;">
  <use xlink:href="#glyph0-0" x="2.292433" y="176.709705"/>
</g>
<g style="fill:rgb(0%,50.19989%,21.569824%);fill-opacity:1;">
  <use xlink:href="#glyph0-1" x="116.676513" y="176.709705"/>
</g>
<g style="fill:rgb(0%,50.19989%,21.569824%);fill-opacity:1;">
  <use xlink:href="#glyph0-2" x="174.218358" y="176.709705"/>
</g>
<g style="fill:rgb(0%,50.19989%,21.569824%);fill-opacity:1;">
  <use xlink:href="#glyph0-2" x="269.888211" y="176.709705"/>
</g>
<g style="fill:rgb(0%,50.19989%,21.569824%);fill-opacity:1;">
  <use xlink:href="#glyph0-3" x="365.558065" y="176.709705"/>
</g>
<g style="fill:rgb(0%,50.19989%,21.569824%);fill-opacity:1;">
  <use xlink:href="#glyph1-0" x="469.972877" y="176.709705"/>
</g>
<g style="fill:rgb(0%,50.19989%,21.569824%);fill-opacity:1;">
  <use xlink:href="#glyph1-1" x="589.953744" y="176.709705"/>
</g>
<g style="fill:rgb(0%,50.19989%,21.569824%);fill-opacity:1;">
  <use xlink:href="#glyph0-3" x="703.288453" y="176.709705"/>
</g>
</g>
</svg>
